Nicholas Marino – Currilum vitae
…
    Coursera
Natural Language Processing Specialization

    2023
Coursera
Machine Learning Engineering for Production (MLOps)

    Coursera
Machine Learning Specialization

Cursos

# A tibble: 81 × 3
   fornecedor           curso                                        ano
   <chr>                <chr>                                      <dbl>
 1 Datacamp             Data Analyst with Python                    2019
 2 Datacamp             Data Scientist with Python                  2019
 3 Datacamp             Python Programmer                           2019
 4 Datacamp             Shiny Fundamentals with R                   2019
 5 Curso-R              Deep Learning                               2020
 6 Data Science Academy Big Data Fundamentos                        2020
 7 Data Science Academy Deep Learning Frameworks                    2020
 8 Data Science Academy Introdução à Inteligência Artificial        2020
 9 Data Science Academy Microsoft Power BI para Data Science        2020
10 Data Science Academy Python Fundamentos para a Análise de Dados  2020
# ℹ 71 more rows
…
