Nicholas Marino - Raspando a página do ranking do BoardGameGeek
…
## parseando o html para um tibble
ranking_pagina_1 <- resultado %>% 
  # pegando o conteudo do GET
  content() %>% 
  # pegando o xpath que contém a tabela
  xml_find_all(xpath = '//table') %>% 
  # parseando o codigo html para o rvest
  rvest::html_table() %>% 
  # extraindo o primeiro elemento da lista
  pluck(1) %>% 
  # dropando qualquer valor do ranking the não seja um número
  filter(str_detect(string = `Board Game Rank`, pattern = '[A-Za-z]', negate = TRUE))
ranking_pagina_1

# A tibble: 100 × 7
   `Board Game Rank` `Thumbnail image` Title          `Geek Rating` `Avg Rating`
   <chr>             <chr>             <chr>          <chr>         <chr>       
 1 1                 ""                "Brass: Birmi… 8.419         8.60        
 2 2                 ""                "Pandemic Leg… 8.386         8.53        
 3 3                 ""                "Gloomhaven\n… 8.370         8.60        
 4 4                 ""                "Ark Nova\n\t… 8.326         8.54        
 5 5                 ""                "Twilight Imp… 8.241         8.61        
 6 6                 ""                "Terraforming… 8.220         8.37        
 7 7                 ""                "Dune: Imperi… 8.215         8.43        
 8 8                 ""                "Gloomhaven: … 8.182         8.46        
 9 9                 ""                "War of the R… 8.181         8.54        
10 10                ""                "Star Wars: R… 8.172         8.42        
# ℹ 90 more rows
# ℹ 2 more variables: `Num Voters` <chr>, Shop <chr>
…
# colocando os links na tabela
ranking_pagina_1 <- ranking_pagina_1 %>% 
  mutate(
    # colocando os links em uma coluna
    link = links
  )
ranking_pagina_1

# A tibble: 100 × 8
   `Board Game Rank` `Thumbnail image` Title          `Geek Rating` `Avg Rating`
   <chr>             <chr>             <chr>          <chr>         <chr>       
 1 1                 ""                "Brass: Birmi… 8.419         8.60        
 2 2                 ""                "Pandemic Leg… 8.386         8.53        
 3 3                 ""                "Gloomhaven\n… 8.370         8.60        
 4 4                 ""                "Ark Nova\n\t… 8.326         8.54        
 5 5                 ""                "Twilight Imp… 8.241         8.61        
 6 6                 ""                "Terraforming… 8.220         8.37        
 7 7                 ""                "Dune: Imperi… 8.215         8.43        
 8 8                 ""                "Gloomhaven: … 8.182         8.46        
 9 9                 ""                "War of the R… 8.181         8.54        
10 10                ""                "Star Wars: R… 8.172         8.42        
# ℹ 90 more rows
# ℹ 3 more variables: `Num Voters` <chr>, Shop <chr>, link <chr>
…
Aplicando estas funções à segunda página do ranking do BGG temos então o Top 101 à 200 na tabela.

Código

## pegando o conteudo da segunda pagina do ranking
ranking_pagina_2 <- pega_pagina(url_base = base_url, 
                                pagina = 2,
                                save_dir = temp_folder
)

## parseando o resultado do GET
ranking_pagina_2 <- parser_pagina(pagina_raspada = content(ranking_pagina_2))
ranking_pagina_2

# A tibble: 100 × 8
   `Board Game Rank` `Thumbnail image` Title          `Geek Rating` `Avg Rating`
   <chr>             <chr>             <chr>          <chr>         <chr>       
 1 101               ""                "Raiders of t… 7.528         7.74        
 2 102               ""                "Caylus\n\t\t… 7.525         7.72        
 3 103               ""                "Tigris & Eup… 7.523         7.71        
 4 104               ""                "Dominion: In… 7.523         7.69        
 5 105               ""                "Lorenzo il M… 7.518         7.85        
 6 106               ""                "Troyes\n\t\t… 7.518         7.72        
 7 107               ""                "Eldritch Hor… 7.516         7.76        
 8 108               ""                "Mombasa\n\t\… 7.516         7.85        
 9 109               ""                "Concordia Ve… 7.515         8.29        
10 110               ""                "The Lord of … 7.513         7.92        
# ℹ 90 more rows
# ℹ 3 more variables: `Num Voters` <chr>, Shop <chr>, link <chr>
…
## raspando todas as paginas do ranking
walk(.x = 1:5, .f = pega_pagina_com_espera, url_base = base_url, 
     save_dir = temp_folder)

## listando os arquivos html na pasta temporaria
paginas_salvas <- dir_ls(path = temp_folder)

## parseando as paginas na pasta data
paginas_raspadas <- map(.x = paginas_salvas, .f = read_html) %>% 
  map(.f = parser_pagina) %>% 
  bind_rows
paginas_raspadas

# A tibble: 500 × 8
   `Board Game Rank` `Thumbnail image` Title          `Geek Rating` `Avg Rating`
   <chr>             <chr>             <chr>          <chr>         <chr>       
 1 1                 ""                "Brass: Birmi… 8.419         8.60        
 2 2                 ""                "Pandemic Leg… 8.386         8.53        
 3 3                 ""                "Gloomhaven\n… 8.370         8.60        
 4 4                 ""                "Ark Nova\n\t… 8.326         8.54        
 5 5                 ""                "Twilight Imp… 8.241         8.61        
 6 6                 ""                "Terraforming… 8.220         8.37        
 7 7                 ""                "Dune: Imperi… 8.215         8.43        
 8 8                 ""                "Gloomhaven: … 8.182         8.46        
 9 9                 ""                "War of the R… 8.181         8.54        
10 10                ""                "Star Wars: R… 8.172         8.42        
# ℹ 490 more rows
# ℹ 3 more variables: `Num Voters` <chr>, Shop <chr>, link <chr>
…
  # organizando a tabela
  relocate(
    id, titulo, ano, .after = board_game_rank
  ) %>% 
  relocate(
    title, .after = num_voters
  ) %>% 
  # renomeando as colunas
  rename(
    rank = board_game_rank, nota_bgg = geek_rating, 
    nota_usuarios = avg_rating, votos = num_voters
  )
paginas_faxinadas

# A tibble: 500 × 10
   rank  id     titulo    ano nota_bgg nota_usuarios votos title link  descricao
   <chr> <chr>  <chr>   <dbl>    <dbl>         <dbl> <dbl> <chr> <chr> <chr>    
 1 1     224517 Brass:…  2018     8.42          8.6  42968 Bras… /boa… Build ne…
 2 2     161936 Pandem…  2015     8.39          8.53 52379 Pand… /boa… Mutating…
 3 3     174430 Gloomh…  2017     8.37          8.6  60822 Gloo… /boa… Vanquish…
 4 4     342942 Ark No…  2021     8.33          8.54 38878 Ark … /boa… Plan and…
 5 5     233078 Twilig…  2017     8.24          8.61 22583 Twil… /boa… Build an…
 6 6     167791 Terraf…  2016     8.22          8.37 95461 Terr… /boa… Compete …
 7 7     316554 Dune: …  2020     8.22          8.43 41145 Dune… /boa… Influenc…
 8 8     291457 Gloomh…  2020     8.18          8.46 32299 Gloo… /boa… Vanquish…
 9 9     115746 War of…  2011     8.18          8.54 20415 War … /boa… The Fell…
10 10    187645 Star W…  2016     8.17          8.42 31448 Star… /boa… Strike f…
# ℹ 490 more rows
…
