Nicholas Marino - Raspando a Página do Ranking da Ludopedia
…
# pegando a segunda pagina do ranking
pega_pagina(url_base = base_url, pagina = 2, save_dir = 'temp/')

# checando para ver se o html foi baixado
dir_ls(path = 'temp/', regexp = '.html')

temp/pagina_002.html

…agora vamos parsear a página a partir do arquivo salvo em disco.

Código
parser_pagina(path_to_html = dir_ls(path = 'temp/', regexp = '.html'))

# A tibble: 50 × 6
   ranking titulo                                ano   notas link_capa link_jogo
   <chr>   <chr>                                 <chr> <chr> <chr>     <chr>    
 1 51º     Agricola (Edição Revisada)            " (2… "\r\… https://… https://…
 2 52º     As Viagens de Marco Polo              " (2… "\r\… https://… https://…
 3 53º     Ticket to Ride: Europa                " (2… "\r\… https://… https://…
 4 54º     On Mars                               " (2… "\r\… https://… https://…
 5 55º     Robinson Crusoé: Aventuras na Ilha A… " (2… "\r\… https://… https://…
 6 56º     Ticket to Ride: Europa - 15 Anos      " (2… "\r\… https://… https://…
 7 57º     Tiranos da Umbreterna                 " (2… "\r\… https://… https://…
 8 58º     World Wonders                         " (2… "\r\… https://… https://…
 9 59º     Viticulture - Edição Essencial        " (2… "\r\… https://… https://…
10 60º     Mombasa                               " (2… "\r\… https://… https://…
# ℹ 40 more rows
…
